<?xml version="1.0" encoding="utf-8"?>
<!-- Generator: Adobe Illustrator 18.1.1, SVG Export Plug-In . SVG Version: 6.00 Build 0)  -->
<svg version="1.1" id="Слой_1" xmlns="http://www.w3.org/2000/svg" xmlns:xlink="http://www.w3.org/1999/xlink" x="0px" y="0px"
	 viewBox="0 0 70.5 63" enable-background="new 0 0 70.5 63" xml:space="preserve">
<g>
	<defs>
		<rect id="SVGID_1_" y="0" width="70.5" height="63"/>
	</defs>
	<clipPath id="SVGID_2_">
		<use xlink:href="#SVGID_1_"  overflow="visible"/>
	</clipPath>
	<g clip-path="url(#SVGID_2_)">
		<defs>
			<rect id="SVGID_3_" y="0" width="70.5" height="63"/>
		</defs>
		<clipPath id="SVGID_4_">
			<use xlink:href="#SVGID_3_"  overflow="visible"/>
		</clipPath>
		<path clip-path="url(#SVGID_4_)" fill="#0C790C" d="M67,41.5l-49.3,0v-2.4l45.2-6c2.4-0.4,4.1-2.3,4.2-4.7V13.4
			c0-2.5-2-4.5-4.5-4.5H17.7V5.5c0-3-2.5-5.5-5.5-5.5H3.5C1.6,0,0,1.6,0,3.5C0,5.4,1.6,7,3.5,7h7.3v36c0,3,2.5,5.5,5.5,5.5H67
			c1.9,0,3.5-1.6,3.5-3.5C70.5,43.1,68.9,41.5,67,41.5 M37.4,31.4l-8.6,1.1V13.9h8.6V31.4z M41.4,13.9H50v15.8l-8.6,1.1V13.9z
			 M62.1,28.2L54,29.2V13.9h8.1V28.2z M24.8,13.9v19.2L17.7,34V13.9H24.8z"/>
		<path clip-path="url(#SVGID_4_)" fill="#0C790C" d="M26.7,49.2c-3.8,0-6.9,3.1-6.9,6.9c0,3.8,3.1,6.9,6.9,6.9s6.9-3.1,6.9-6.9
			C33.6,52.3,30.5,49.2,26.7,49.2"/>
		<path clip-path="url(#SVGID_4_)" fill="#0C790C" d="M60,49.2c-3.8,0-6.9,3.1-6.9,6.9c0,3.8,3.1,6.9,6.9,6.9s6.9-3.1,6.9-6.9
			C66.9,52.3,63.8,49.2,60,49.2"/>
	</g>
</g>
</svg>
